{
  "model_name": "DL1r-PFlow_new-taggers-4M-normal-hybrid",
  "scale_dict": "params_MC16D-2018-PFlow_70-4M_mu.json",
  "train_file": "DL1Training-PFlow-hybrid_MC16D_2018_70-4M_preprocessed.h5",
  "validation_file": "MC16d_hybrid_odd_100_PFlow-validation.h5",
  "variable_config": "DL1r_Variables.json",
  "NN_structure":  {
    "lr": 0.01,
    "batch_size": 3000,
    "activations": ["relu", "relu", "relu", "relu", "relu", "relu", "relu", "relu"],
    "units": [72, 57, 60, 48, 36, 24, 12, 6]
    }
}
