{
  "model_name": "DL1r-VR_track_jets-22M-3TeV_pT-dropout-complex",
  "scale_dict": "params_MC16D-2019-VRjets-3TeV_pT.json",
  "train_file": "DL1Training-VRjets_extended-hybrid_MC16D_2019-21M_preprocessed-DL1r-stats-3TeV_pT_merged.h5",
  "validation_file": "MC16d_hybrid_odd_100_VRtrackJets-no-pTcuts-file_0.h5",
  "add_validation_file": "MC16d_hybrid_odd_0_ext-Zprime_VRtrackJets-no-pTcuts-stats-file_0.h5",
  "variable_config": "configs/DL1r_Variables.json",
  "NN_structure":  {
    "lr": 0.01,
    "batch_size": 75000,
    "activations": ["relu", "relu", "relu", "relu", "relu", "relu", "relu", "relu", "relu"],
    "units": [512, 512, 256, 128, 48, 36, 24, 12, 6],
    "dropout_rate": [0.2, 0.1, 0.1, 0.1, 0.1, 0.1, 0.1, 0.1, 0.1]
    }
}
